id	token_id	gardiner_number	clf_n	clf_type	clf_level	semantic_relation	phonetic_classifier	false_etymology	comments
1	29	F18	1	s/t	1				
2	29	D40	2	t	1				
3	36	M3	1	s	1				
4	36	Z2	2	t	1				
5	37	M3	1	s	1				
6	40	pr	1	s/t	1				
9	43	Z9	1	s/t	1				
10	43	D40	2	t	1				
11	45	D51	1	s/t	1				
12	45	D40	2	t	1				
13	56	D51	1	s/t	1				
14	56	D40	2	t	1				
15	57	D51	1	s/t	1				
16	57	D40	2	t	1				
17	59	Z9	1	s/t	1				
18	59	D40	2	t	1				
22	100	E1	1	r	1				
23	101	E1	1	r	1				
24	101	I12	2	t	1				
25	106	Y1	1	residual	1				
26	106	A24	2	t	1				
27	108	D51	1	s/t	1				
28	108	D40	2	t	1				
29	122	A24	1	t	1				
30	122	A1	2	t	2				
31	122	Z2	3	t	1				
32	125	Z9	1	s/t	1				
33	125	A24	2	t	1				
34	126	Z9	1	s/t	1				
35	126	D40	2	t	1				
36	127	F18	1	t?	1				
37	127	A2	2	t	1				
38	128	D51	1	s/t	1				
39	128	D40	2	t	1				
40	129	Z9	1	s/t	1				
41	129	A24	2	t	1				
42	140	V6	1	t	1				
43	140	A24	2	t	1				
44	141	V6	1	t	1				
45	141	A24	2	t	1				
46	145	Z6	1	t	1				
47	145	A24	2	t	1				
48	145	A1	3	t	1?				
49	145	Z2	4	t	1				
59	152	A24	1	t	1				
60	152	Z7	2	t	1				
61	152	Z3A	3	t	1				
62	152	A24	1	t	1				
63	152	Z7	2	t	1, is it pl? 				
64	152	Z3A	3	t	1?				
65	153	Z9	1	t	1				
66	153	A24							
67	153	A1	2	t	1				
68	153	Z9	1	t	1				
69	153	A24	2	t	1				
70	153	A1	3	t	2				
71	154	A24	1	t	1				
72	154	A1	2	t	1				
73	154	A24	1	t	1				
74	154	A1	2	t	2				
79	156	A24	1	t	1				
80	156	M3	2	s	1				
81	156	Z2	3	t	1?				
82	163	E21	1	r	1				
83	164	C7	1	r	1				
84	164	A40	2	t	1				
85	165	C7	1	r	1				
86	165	A24	2	t	1				
87	165	C7	1	r	1				
88	165	A24	2	t	3	context quality			
89	166	C7	1	r	1				
90	166	T14	2	t	2				
91	166	A1	3	t	2				
92	184	E21	1	r	1				
93	184	D40	2	t	1				
94	184	A1	3	t	2				
101	208	V6	1	s/t	1				
102	208	A24	2	t	1				
103	211	Y1	1	residual	1				
104	211	A24	2	t	1				
105	211	B1	3	t	1				
106	211	Z3A	4	t	1				
107	217	D6	1	t	1				
108	218	D6	1	t	1				
109	220	Z9	1	s/t	1				
110	220	D40	2	t	1				
111	221	D40	1	t	1				
112	231	D40	1	t	1				
113	234	A2	1	t	1				
114	235	A2	1	t	1				
115	242	Z9	1	s/t	1				
116	242	D40	2	t	1				
117	262	D51	1	s/t	1				
118	262	D40	2	t	1				
119	264	A24	1	t	1				
120	276	D51	1	s/t	1				
121	276	D40	2	t	1				
122	276	Z2	3	t	1				
123	296	D54	1	t?	1				
124	296	Z2	2	t?	1				
125	296	A24	3	t	1				
126	296	A1	4	t	2?				
127	296	Z2	5	t	2?				
128	319	Z9	1	s/t	1				
129	319	D40	2	t	1				
130	320	T30	1	s/t	1				
131	320	D40	2	t	1				
132	330	Z4	1	space filler?	1				
133	330	Y1	2	residual	1				
134	330	A24	3	t	1				
135	330	A1	4	t	2				
136	330	Z2	5	t	2				
137	341	Z9	1	s/t	1				
138	341	D40	2	t	1				
139	342	G7	1	t	3				
140	351	Z9	1	s/t	1				
141	351	D40	2	t	1				
142	353	Z9	1	s/t	1				
143	353	D40	2	t	1				
144	363	Z9	1	s/t	1				
145	363	D40	2	t	1				
146	366	D51	1	s/t	1	here, to touch closer to cl			
147	366	D40	2	t	1				
148	386	A24	1	t	1				
149	405	Z9	1	s/t	1				
150	405	D40	2	t	1				
151	427	Z9	1	s/t	1				
152	427	D40	2	t	1				
153	452	Z9	1	s/t	1				
154	452	A24	2	t	1				
155	463	Z9	1	t	1				
156	463	A24	2	t	1				
157	467	Z9	1	s/t	1				
158	467	D40	2	t	1				
159	468	Z9	1	s/t	1				
160	468	D40	2	t	1				
163	471	Y1	1	REsidual	1				
164	471	A24	2	t	1				
165	471	A1	3	t	2				
166	494	A30	1	t	1				
167	494	Y1	2	residual	1				
168	495	A30	1	t	1				
169	496	A30	1	t	1				
170	497	A5	1	t	1				
171	497	A2	2	t	1				
172	498	A30	1	t	1				
173	498	Ff1	2	residual	1				
174	498	F18	3	t/s?	1				
175	498	A2	4	t	1				
176	499	D40	1	t	1				
177	500	A30	1	t	1				
178	501	A4	1	t	1				
179	501	A28	2	t	1				
180	501	Z3	3	t	1				
181	502	A30	1	t	1				
182	502	Ff1	2	t	1				
183	502	F18	3	t	1				
184	502	A2	4	t	1				
185	503	D40	1	t	1				
187	537	A24	1	t	1	actor			
188	537	D56	2	t	1	tool=leg			
189	537	D54	3	t	1	type of action			
190	539	F18	1	t	1				
191	539	A2	2	t	1				
192	540	D51	1	s/t	1				
193	540	D40	2	t	1				
194	542	Z9	1	s/t	1				
195	542	D40	2	t	1				
196	543	Z9	1	s/t	1				
197	543	D40	2	t	1				
198	547	D46D	1	r	1				
199	547	F51	2	s	1				
200	547	Ff1	3	t	1				
201	548	D46D	1	r	1				
202	548	F51	2	s	1				
203	548	Ff8A	3	t	1				
204	549	D46D	1	r	1				
205	549	F51	2	s	1				
206	549	Ff8A	3	t	1				
207	550	D46D	1	r	1				
208	550	F51	2	s	1				
209	551	D46D	1	r	1				
210	551	F51	2	s	1				
211	551	Ff8A	3	t	1				
212	552	D266	1	r	1				
213	552	Z2	2	t	1				
214	553	D46D	1	t	1				
215	553	F51	2	s	1				
216	554	F51-F51-F51	1	s	1				
217	555	F51-F51-F51	1	s	1				
218	556	F51-F51-F51	1	s	1				
219	557	D46D	1	r	1				
220	557	Z2	2	t	1				
221	558	D46D	1	r	1				
222	558	Z2	2	t	1				
223	559	D46D	1	r	1				
224	559	Z2	2	t	1				
225	561	F51-F51-F51	1	t	1				
226	561	Z2	2	t	1				
227	562	F51-F51-F51	1	s	1				
228	563	Z2	1	t	1				
229	564	D46D	1	r	1				
230	564	F51	2	s	1				
231	564	Ff1	3	t	1				
232	584	D51	1	s/t	1				
233	584	D40	2	t	1				
234	624	Z9	1	s/t	1				
235	624	D40	2	t	1				
242	665	Z9	1	s/t	1				
243	665	D40	2	t	1				
244	684	Z9	1	s/t	1				
245	684	A24	2	t	1				
248	1		1		1		false	false	
249	1		2				false	false	
250	269		1						
251	269		2						
252	269		3						
253	270		1						
254	270		2						
255	270		3						
268	493	A30	1	t		agent	false	false	
269	493	Y1	2	residual	1		false	false	
270	395	D54	1						
271	149	A24	1	t	1		false	false	
272	150	A24	1	t	2		false	false	
273	150	A24	2	t	1		false	false	
274	150		3						
275	151	A24	1	t	1		false	false	
276	151	A24	2	t	1		false	false	
277	151	A1	3	t	1		false	false	
278	151	A1	4	t	2		false	false	
279	151	Z2	5	t	1		false	false	
280	151	Z2	6	t	2		false	false	
281	203		1						
282	203		2						
283	204	Z9	1	t	1		false	false	
284	204	A24	2	t	1		false	false	
285	205	V6	1	t	1		false	false	
286	205	Z3A	2	?	1		false	false	
287	206	V6	1	s/t	1		false	false	
288	206	A24	2	t	1		false	false	
289	207		1						
290	207		2						
291	469		1						
292	469		2						
293	470	Y1	1	REsidual	1		false	false	
294	470	A24	2	t	2		false	false	
295	470		3						
296	635		1						
297	635		2						
298	636	Y1	1	t	1		false	false	
299	636	A24	2	t	1		false	false	
300	637	D19	1	s	1		false	false	
301	637	G37	2	t	1		false	false	
302	638		1						
303	638		2						
304	639	Y1	1	REsidual	1		false	false	
305	639	A24	2	t	1		false	false	
306	639		3						
307	121		1						
308	121		2						
309	121		3						
310	155	A24	1	t	1		false	false	
311	155	A24	2	t	1		false	false	
312	155	A1	3	t	1		false	false	
313	155	A1	4	t	2		false	false	
314	263		1						
315	534		1						
316	534		2						
318	535		1				false	false	
319	536	A24	1	t	1	actor	false	false	
320	536		2						
321	536		3						
325	75	A24	1	t	1		true	true	False etymology to Egyptian nHm
326	75	T14	2	t	1		false	false	
327	75	A1	3	t	2		false	false	
328	426		1						
329	426		2						
333	42	Q3	1	s/r	1		0	0	
334	42	Q3	2	s/r	1		0	0	
336	6	N18	1				0	0	
337	646	M1	1	t			0	0	
338	646	N33	2				0	0	
339	646	Z2	3				0	0	
342	2	F27	1	t			0	0	
343	2	Z2A	2				0	0	
352	744	F27	1	t	1		0	0	
353	744	Z3A	2	t	1		0	0	
