id	transliteration	meaning	root	lb_status	lexical_field	demotic	demotic_meaning	coptic	coptic_meaning	comments
1	ȝri, ȝyr	stag, ram		LB	animals	ȝywr		ⲉⲓⲟⲩⲗ, ⲟⲉⲓⲗⲉ, ⲁⲓⲗⲉ, ⲱⲓⲗⲓ		"Helck #1;  (ʾe-ju-l) n. Wenamun 2, 68; n. following Wilson ANET 20  אַיִל . 

Hoch #1; cf. #17,18. 

Burchardt #12;

Wb I, 38, 16. 

Meeks 1997 íȝyr «animal used for food, probably “stag”, possibly“ram”» 
(Wb I, 38, 16).
Que ce mot désigne le cerf et non le bélier est rendu pratiquement certain par un exemple démotique (Chauveau, RdE 41, 7 et n. 16). Voir également les remarques de Vicychl, Dict. étymologique de la langue copte, 62 qui lèvent les possibles ambiguïtés. Le terme semble donc différent de celui enregistré sous les no 17 et 18."
2	ȝby, ȝbn	father		N in PN, TN	kin terms					"ibr
Burchardt #20; ibr;   plural *i-A2-bA-Z1-Z4:r-Z1-i-i-F27-Z3A. Anast. IV 7,9. 
Helck #2; ʾa-bi-ra,  Urk. IV 663,   ʾa-bi-r-ja An. IV 17,9.  (Hengst= stallion). ""Held"", after Loret, Rec. Trav. 18, 2ol n. 2; Jequier BIFAO 19, 22.  
Ramses #94247 http://ramses.ulg.ac.be/lemma/94247
TLA #23790 http://aaew.bbaw.de/tla/servlet/GetWcnDetails?u=fd&f=0&l=0&wn=23790&db=0

"
3	ibr	stallion		LB	animal 					"Burchardt #20; ibr;   plural *i-A2-bA-Z1-Z4:r-Z1-i-i-F27-Z3A. Anast. IV 7,9. 
Helck #2; ʾa-bi-ra,  Urk. IV 663,   ʾa-bi-r-ja An. IV 17,9.  (Hengst= stallion). ""Held"", after Loret, Rec. Trav. 18, 2ol n. 2; Jequier BIFAO 19, 22.  
Ramses #94247 http://ramses.ulg.ac.be/lemma/94247
TLA #23790 http://aaew.bbaw.de/tla/servlet/GetWcnDetails?u=fd&f=0&l=0&wn=23790&db=0"
4	ibšt 	hardtack		LB	Food and drink					𓇋𓀁𓅡𓏤𓈙𓏏𓏲𓈀
5	ȝbȝt	perish 		semitic transcription an. I 23,5 hapax	actions					
6	*ipt	cakes, biscuits 		LB hapax?	Food and drink					supplies for military expedition 
7	aft	edible plant?		LB	plant					CL Gardiner F37 classifying  phn. sm and then LE with sm.w vegetables
8	ȝm 	chariot part*?		LB	weaponry?					"only anastasi IV 16, 10 as noted by hoch the meaning is based on classifiers 
𓄿"
9	ȝm	mother		N in PN	kin terms					in personal names, orly also איה אמי  פפירוס ברוקלין רשימת עבדים
10	ȝln/inr?	oak tree		LB	plant					
11	in/ȝ/nmȝ	pomegranate		LB	plant	hrnt		s.ϩ(ⲉ)ⲣⲙⲁⲛ/b.ⲉⲣⲙⲁⲛ	pomegranate	
12	ȝnq	onyx, lead, tin		?nonsemitic/ CW	materials					in a list of precious stones 
13	ỉnḳfḳft	chariot object*?		LB hapax?	weaponry?					
14	ȝl	god		N in PN, TN, DN	religion					in PN DN TN - what examples as DN???? 
15	ȝr	lion?		semitic transcription an. I 23,5	animal					
16	airiar	guide, leader		semitic transcription an. I 23,9	society					
17	ȝrḳbs	precious stone		hapax. Koller IV, 2-3	materials					
18	ahr	tent		LB	the house wold/hoch architecture					
19	ꜣxn	tip, bottom end		LB hapax?	space relation					the X of your staff is the ends of all lands
20	ȝxt	sister		N in PN hapax? 	kin terms					vienna stela 107
21	ȝswt/swȝti	long plank		LB	ship parts? 					context of ship and ship building long plank of aš wood also Hoch 362
22	ȝsbr	whip		LB	manmade objects					with a picture in TT 93, mentioned also as chariot equipment 
23	ȝsbr	juniper		LB also lw in greek and latin	plant					is it connected to 'juniper' aAraAru Sivan 1984 
24	isbt/isb/sbi/sbit	chair, throne		LB core borrowing cf. 	furniture					albright has this in cuneiform transliterated as da-as-pu ta isbt JEA 12: 189 
25	isb	shelter, hut, residence		LB 	the house wold/hoch architecture					to check isbt with last word
26	ꜣ/ispt	quiver 		LB 	weaponry?					
27	ꜣšf	scorch (a town), searing (of blows)		is it loanword? fischer elfert	actions					TYPE EXAMPLES 
28	ꜣkn	a large vessel		LB 	manmade objects					Syrian tribute
29	ꜣtll	?		LB hapax?						in joppa, something carried by soliders?? 
30	ꜣT	which, what, who		InterogativeB	Cognition					comapre Egyptian 
31	ꜣṯmy	metal part of a whip		hapax	weaponry?					
32	ꜣsr	captive		LB hapax?	social relations					in.tw.w m asr m HAq.w- Med Habu 86,49 
33	ꜣdmt	land		N in TN hapax? 	natural elements					
34	ꜣdg	sweet-melon/watermelon		LB cultural?	plant			ϭⲗⲟϭ, ϭⲗⲱϫ, ϣⲗⲱϫ	gourd	mi dp bit! 
35	ꜣḏmn	inner body part		LB hapax?	anatomy					place in which smn-demon is submerged
36	ꜣḏr	vessel		LB	manmade objects					classifier of metal however- what kind of pot?? 
37	ꜣḏrt	vessel		LB	manmade objects					
38	yʿqb	succeed, be near, protect 		verb in TN 	actions/emotions					
39	ybr	stream		LB and N in TN 	natural elements					BH אובל - עם א' יש כתיבים 
40	ybr	grass		LB	plant					list of plants etc. stored in a barn 
41	ym	sea		LB, core borrowing cf. wAD wr	natural elements	ym		ⲉⲓⲟⲙ	sea	winand 2017 and 
42	ymsr	rule, reign		verb in PN 	social relations					
43	ynḥm 	to comfort, have compassion		verb in PN 	actions/emotions					
44	ynḏb	to stand firm 		verb in PN 	actions/emotions					
45	yrḥm	to be compassionate		verb in TN 	actions/emotions					
46	yḥm 	to protect		verb in PN and TN	actions/emotions					"lemma-no. 862877
http://aaew.bbaw.de/tla/servlet/GetWcnDetails?u=guest&f=0&l=0&wn=862877&db=0
"
47	yḥnm	to be gracious/ to console		verb in PN 	actions/emotions					
48	ysbḥ	to praise		verb in PN 	actions/emotions					
49	yšp	to return, dwell 		verb in TN 	actions/emotions					same root or each one- hoch nos. 30, 364 isbt and sbi 
50	yqsm	fowler??		N in PN hapax? 	social					
51	yqm	pillar, statue?		LB 	manmade objects					
52	y(w)d	hand, monument?		N in PN hapax? 	x					check meaning expansion (monument) generally in Semitic 
53	yta 	skilled, learned 		in transliterated An I 17,7 and PNS- VB, LB participe form 	social relations					
54	ʿyn	spring, well 		N in TN 	natural elements					ʿny in execration texts lookup it is written a:n:Y4-D8-N25  interesting!! 
55	ʿn	eye		N in TN 	body parts 					
56	ʿwr	blind 		N/adj. in PN ? hapax	The body					18th dyn name list 
57	ʿbAy?	?		N in TN 						
58	ʿbr	?		LB hapax?						
59	ʿbd	servant 		PN, in canaanite dialects widespread	social relations					Hoch notes those two words appear in the same compound names 
60	ʿpr	servant 		N in PN and TN	social relations					Egyptian word in compund 
61	ʿpr	apiru 		LB but ethnic term? 	animals					Lemche etc. 
62	ʿpšyt	beetle, grasshopper		LB cultural/ core? what refers to? 	animals			ⲉⲡϣⲉ	not in crum?	
63	ʿmryt	milk cow 		Title for Anat, LB? 	Food and drink					look deeper
64	ʿmq	valley		N in/as TN 	natural elements					
65	ʿmq	to mount 		VB 	actions/emotions					! 
66	ʿmd	stand firm		VB hapax- grammar check in context 	actions/emotions					
67	ʿmd	chariot part*?		LB 	weaponry?					iw nAy=sn X bakw m bnw - made of gold 
68	ʿmd	type of field 		hapax LB in a list - not clearly Semitic 	Agriculture and vegetation					gloss. gol. 6, 6 
69	ʿnb	grapes		N in TN 	Agriculture and vegetation					
70	ʿnn	singing, flute playing		hapax LB in anastasi IV	activities 					
71	ʿnḏr	enclosure? court? 		N in TN hapax? 	Agriculture and vegetation					
72	ʿla?*	ascent?		N in TN hapax? 	spatial relations?					
73	ʿršn	skin disease		LB 	health			ⲁⲣϣⲁⲛ	a skin disease, lentigo	attested only in the oracular amuletic decrees 
74	ʿršn	lentils		LB 	Agriculture and vegetation	aršn		ⲁⲣϣⲓⲛ, ⲉⲣϣⲓⲛ, ⲉⲣϣⲁⲛ	lentils	does it start in lists- who goes out of lists and whos not 
75	ʿrt	upper chamber/gate?		LB ward says its Eg. aryt newly spelled 	architecture					
76	ʿrḏt	those who terrify?? 		VB Hapax- PPA grammar check in context 	actions/emotions			ⲱⲣϫ	to fortify?	aDrwt xas.t nb 
77	ʿsb	grassy patch? 		hapax LB 	Agriculture and vegetation					helck as noted by hoch weirdly translates: well watered vegteble garden 
78	ʿšq	to extort, oppress		VB 	actions					bw X=i bw nHm=i i did not X idid not steal 
79	ʿšqw*	acts of opression		LB	actions					
80	ʿqrb	scorpion 		N in TN	animals					
81	ʿkbr	mouse		N in PN 	animals					
82	ʿgn	ringstand ?? 		LB 						in Ahmose stele X m HD
83	ʿgn/ʿgꜣnꜣ	knob, handle		LB 						 
84	ʿgrt	wagon 		LB 	motion?	ʿklt		ⲁϭⲟⲗⲧⲉ, ⲁϫⲟⲗϯ	wagon, cart	https://corpling.uis.georgetown.edu/coptic-dictionary/entry.cgi?entry=304&super=177
85	ʿgs	braided/plaited bread type 		LB hapax						"kitchen 1997: 90 agrees. ""it may be that the dough was indeed braided or interlaced to produce a ""bobble"" loaf."""
86	ʿgs	belt		LB 	Clothing and grooming			ⲁⲕⲏⲥ	girdle, breechers	
87	ʿṯm	goat? 		LB hapax	animals					
88	ʿdn	wheat type		LB 	Agriculture and vegetation					ina ending can be plural, if et is write H in ayin again?? Hoch p85 
89	adti	conspiracy		LB hapax in Wenamun 	social					
90	aḏdi	seer/		LB hapax in Wenamun? WRONG	social relations					
91	aḏy	strength/might?		N in PN 						
92	aḏr	helper		LB 	society					
93	aḏr	parts of a chariot 		LB hapax in Wen 1, x+3 and 1, x+4 	weaponry?					
94	aḏir?	juice, extract 		LB hapax in Ebers 63, 9	Agriculture and vegetation					
95	bꜣr 	well		N in TN	architecture 					
96	bit, bt	house, clan, family		N in TN	architecture 					
97	bʿr	Ba'al 		DN in LB, and in PN 	divine 					
98	bbr	Babylon 		N in TN						
99	bn	son		N in PN 	kinship					
100	bnr	out		LB? 	movement/orienatation? 					
101	bnt, bt	daughter		N in PN 	kinship					
102	bnd	to gird (clothes)			actions					
103	bnd	garment, belt			man made objects					
104	brt, bry.t	obligatory service, household position	brt, bry	LB 	social 					"Kitchen 1997 links bryt and brt. (H 135 and 124). Kitchen 1974b ""brt"" 'bond'> 'covenant, contract, treaty' 
Görg 1979 ""Die Vorkommen prasentieren sich samtlich mit der Sinngebung eines “notigenden Verhaltnisses”. Dabei kann die Initiative von Hoherstehenden (Nauri) und Unterlegenen (Medinet Habu) ausgehen, so dass man vor einer “Fremdverpflichtung” und von einer “Selbstverpflichtung” als semantischen Implikationen reden kann. Von einer Interpretation als “Vertrag, Bund” aufgrund angeblicher semantischer Analogie zu alttestamentlichem Sprachgebrauch muss abgesehen werden."" 3.2.3, in: Görg, M. 1979. “Bericht über die Arbeit an einem Wörterbuch der semitischen Fremdwörter im Ägyptischen,” in: W.F. Reineke (ed.), Acts of the First International Congress of Egyptology, Berlin: Schriften zur Geschichte und Kultur des Alten Orients, 237-41.
CAD II, 267- birit possible lexicalization?? CAD II, 252 baritu, berittu, birtu, biStu, bertu. Ug. DULAT 238 only brt 'divination', citing BH contact to Forecast, omen (?): hm tġrm lmt brtk if you are bound (to pay) to death /
Môtu (according to) your forecast / omen, 1.82:5 (diff. De Moor ARTU 176:
“you are pledging your covenant to Death”, Hb. bryt; "
105	brry	wood type? chariot?		LB	man made objects					
106	brq	sparkle		LB	sens?			ⲉⲃⲣⲏϭⲉ, ⲃⲃⲣⲏϭⲉ, ⲉⲃⲣⲏϫ	lightning	
107	brk	to kneel, to bow		LB	actions					
108	brk	greetings, obeisance		LB	actions					cf. mrk 
109	brk	gifts 		LB	social 					
110	brk	blessing 		N in PN 	social 					orly ברכה שם לא פרטי, גם בדמוטית אישה מסמן דקדוקי מין נקבה לשם 
111	brkt	pool, pond 		LB	NATURAl elements	brkt	pool	ⲃⲉⲣϭⲟⲟⲩⲧ, ⲧⲃⲉⲣⲉϭⲱⲧ		
112	brg	to be happy, content		LB	actions					
113	brt2	obligatory social position  		LB	social					Görg, M. 1979. “Bericht über die Arbeit an einem Wörterbuch der semitischen Fremdwörter im Ägyptischen,” in: W.F. Reineke (ed.), Acts of the First International Congress of Egyptology, Berlin: Schriften zur Geschichte und Kultur des Alten Orients, 237-41.
114	bHl	shame		LB	emotions					
115	bš	axe		LB	man made objects			ϥⲱⲥⲓ	chisel, knife	
116	bq	to open?, to stay? 		LB hapax	actions					may I remain in the service of my lord X his doors 
117	bqʿ	gully, ravine		LB hapax						
118	bkꜣ	certain tree, pear? 		LB	natural elements					
119	bt3	hh checkup to keep numbers same 								
120	bt	chariot part? kitchen 1997: housings		LB	actions 					cf. Hoch 124/135 'housings', also Kitchen 1997: 90 
121	bt4	hh checkup to keep numbers same 								
122	bḏr	stick, rod		LB	actions 					
123	pr/pl	beans 		LB	Agriculture and vegetation					
124	prx	to blossom		LB	actions 					
125	prx	blossom, sprout		LB	Agriculture and vegetation					
126	???	???			man made objects			ⲡⲱⲣϣ	to spread 	
127	prš	to split open, tear		LB	man made objects					
128	prk	cattle/breed of foreign cattle		LB hapax	Spatial relations					
129	prṯ	laceration?		LB hapax	Food and drink					
130	phrt	body of water		LB hapax	natural elements					
131	pg	chest, coffer?		LB hapax	Spatial relations					
132	pdr	bandages		LB hapax	man made objects					
133	pdr	sack/measure		LB	possesion					
134	mꜣrt	food?		LB hapax	social					
135	mʿd	assembly		LB hapax	social					
136	mn	maneh (a weight)		LB hapax	possesion					
137	mnꜣt	property, estate		LB hapax	social					
138	mnrws	nest 		LB hapax	habitat/animals wold					
139	mnḥt	gift, tribute		LB	social					
140	mns	type of scribe/loan-clerk		LB hapax	social					
141	mnt	part of tomb/sarcophagus		LB hapax	architecure					
142	mntḏ	chariot equipment- whip lashes? 		LB hapax	weaponry					identical to hoch no. 233 
143	mnṯḥt	PN: exile/abandoned woman 		V/N in PN 						
144	mndt	tax, gifts, tribute?		LB hapax	social					
145	mnḏqt	large vessel		LB	man made objects					
146	mra	military position involving horses		LB and N in PN	warfare					
147	mra	fright, fear, ? 		LB hapax	emotions					
148	mryn	knight		LB semitic?? 	warfare					
149	mlynt	a vessel 		LB hapax	man made objects					
150	mrm	heights		N in TN						
151	mll	a baked good 		LB hapax	Food and drink					
152	mrḥ	spear, lance		LB	weaponry			ⲙⲉⲣⲉϩ	spear	
153	mrḥ	salt/salty land		N in TN	Food and drink			ⲙⲉⲗϩ	salt	
154	mrḥm	salt workers 		LB hapax						
155	mrs	new wine, must		LB	Food and drink			ⲙⲣⲓⲥ, ⲉⲙⲃⲣⲓⲥ	must	
156	mrs	a vessel 		LB hapax	man made objects			ⲙⲁⲣⲓⲥ, ⲙⲁⲩⲣⲓⲥ, ⲙⲁⲩⲣⲏⲥ	water jug	
157	mrqt	to flee, retreat, flight 		LBV?	actions					
158	mrqḏn	metal tool 		LB hapax	man made objects					
159	mrk/mlk	king		N in TN and PN	Social relations					
160	mrkbt	chariot		LB	military					
161	mhr	officer, military position? better trans		LB and N in PN	military					why child classificaiton perhaps false classification into Egyptian mhr- milk 
162	mhll	praise 		LB hapax	actions					
163	mḥnm	encapment? 		N in TN						
164	mḥḏrt	fish pond 		LB						
165	mḫr/mḫl	buyer		LB	society					
166	mḫr	basket, box 		LB	Basic actions and technology					
167	mḫrt	bag		LB hapax	Basic actions and technology					
168	mḫt	chariot part?		LB	Warfare and hunting					
169	msḫ	amphora		LB	Food and drink @ wold 					
170	msḫt	amphora		LB hapax	Food and drink @ wold 					
171	mst	ship/oars		LB	transportation?					not clear hoch's translation 'small galley propelled by oars', ref. Glanville ZAS 68: 16 (32)
172	mstr	office, chancellary		LB	society					
173	mštḥ	trap, snare 		LB hapax	Warfare and hunting					
174	mšꜣb	watering place 		LB	Agriculture and vegetation					
175	mšr	table?, furniture type		LB	man made objects/ wold: the house					
176	mšrr	plain, wetland		N in TN is it LB? 	Agriculture and vegetation					
177	mšrr	to attach, to affix		LB hapax	actions					
178	mškb	state official / Kitchen 1997: transport man/officer		LB	society					Kitchen 1997 questions Hoch 1994: 209 translation not suiting context. 
179	mškt	dwelling place 		N in TN						
180	mšddt	comb		LB	Clothing and grooming			ⲙϣⲧⲱⲧⲉ	(weaver's) comb	
181	mḳʿr	firebox, bottom of oven 		LB	man made objects/ wold: the house- food and drink ??? 					
182	mḳr	heart, oven		LB hapax	man made objects/ wold: the house- food and drink ??? 					
183	mḳr	staff, stick, rod		LB						
184	mḳr, mḳrꜣ	a vessel, goblet?		LB	man made objects/ wold: the house			ⲙⲁⲕⲣⲟ		
185	mḳrpt	spade, hoe 		N in TN						
186	mḳḳ	soft soil, moist soil		LB	Agriculture and vegetation					
187	mkmrt	fishnets		LB hapax	Warfare and hunting					
188	mkrꜣ	merchant 		LB hapax						
189	mktr/mgdl	tower		N in TN	architecture					
190	mgr, mḳ	to broil, grill 		LB- v 						
191	mgrt	cave		LB and N in TN						
192	mgs	metalworking activity? 		LB- v 						
193	mgsp	crate, basket		LB hapax						
194	mtrt	cordage		LB						
195	mtḏꜣ	whip lashes?		LB hapax						
196	mṯprt	tool? chisel? 		LB hapax						
197	mṯn	gift 		N in TN						
198	mṯtt	?		LB hapax						
199	md	measure?		LB hapax						
200	mdd	vessel, containg wine and milk? 		LB	man made objects/ wold: the house					
201	mḏʿ	produce, crops		LB	Agriculture and vegetation					
202	mḏʿ	to grow, cultivate		LB- v hapax	Agriculture and vegetation					
203	mḏrn	a weapon 		LB						
204	mḏḥt 	mortar, quern 		LB				ⲙϫⲁϩⲧ	mortat	
205	mḏqt	large vessel 		LB	man made objects/ wold: the house	mḏq				
206	nʿm	dear, charming, pleasant 		LB and N in TN						
207	nʿrn 	soliders, special setachment		LB						
208	nʿš	fierce, raging		LB						
209	nʿš	to overpower		LB v						
210	nwt	to tremble 		LB v						
211	nmʿ	to sleep		LB v						
212	nmʿ	sleep		LB 						
213	nrḥ	to revile, verbally abuse		LB v						
214	nhr	stream, river		LB and N in TN 						
215	nhr	fleeing, to flee, to sail?		LB v	motion? 					"http://aaew.bbaw.de/tla/servlet/GetWcnDetails?u=guest&f=0&l=0&wn=87400&db=0

http://aaew.bbaw.de/tla/servlet/GetWcnDetails?u=guest&f=0&l=0&wn=87400&db=0"
216	nhra	fugitives		LB						
217	nhri?	title of a syrian leader? 		LB title 						
218	nḥš	medicine ?		Lb	non, medicine 					"nHS  (lemma-no. 86670)
http://aaew.bbaw.de/tla/servlet/GetWcnDetails?u=guest&f=0&l=0&wn=86670&db=0"
219	nḫr	wady, seasonal river bed?? 		LB and N in TN 						
220	nsk	to put in proper array?		LB v						
221	nkpt	an (edible?) plant		LB						
222	nkftr	NIKIPTU oil  ? 		LB						
223	ngꜥ	to arrive, touch 		LB v						
224	ngb	the negeb (dry country)*?		LB and N in TN 						
225	nṯꜥ	to desert, divorce		LB v						
226	nṯḫ	a musical instrument		LB						
227	nṯk	cast metal object, ingot? 		LB						
228	nḏn	a tree, perhaps almond?? 		N in TN 						
229	ry	to be well watered? 		v in TN , ngb-ry						Kitchen 1997 
230	rwṯ	runner		PN						compund 
231	rb	great, master		adj in PN/ N in PN 						
232	rby	lioness		LB		lby	lioness	ⲗⲁⲃⲟⲓ	lioness	
233	rbšy	cuirass, leather armour		LB		lybS	coat of armour	ϩⲁⲗⲃϣⲉ, ϧⲉⲗⲉⲃϣ, ϧⲉⲗⲗⲓⲃϣ, ϧⲉⲗⲓⲃϣ	coat of armour	
234	rbš	to wear (a cuirass)		LB v						
235	rbk	fine bread/pastry?		LB						
236	rbt	great		adj in PN/ PN 						
237	rm	high, exalted		vb/adj. in PN 						
238	rhdt	a vessel		LB				ⲣⲁϩⲧⲉ	cauldron 	
239	rḥb	broad, open space		TN						
240	rḥb	a vessel		LB						
241	rḥs	bread, cake, pan-cake??		LB						
242	rš	peak, head		LB and N in TN 						
243	rks	equipment, gear		LB						
244	rgt	hollow spaces ?? compartments of		LB						
245	rdnn	laudanum (arumetic resin of XX)		LB 						in a list of donations to temple
246	hykryn	temple, palace		N in TN 						
247	hr	mountain		LB and N in TN 						
248	hrf	remedy		LB 						
249	hrnt	a type of cereal		LB 		hrnt				
250	hll	to praise 		LB v						
251	hrtqḥ	fleeing, retreating		LB v						
252	hrṯṯ	to do stealthly?*		LB v						
253	hsmḳ	to rage		LB v						Kitchen 1997 supports Hoch's etymology 
254	hstkt	to swerve, careen, rock 		LB v						
255	htm	destroying, destroyer 		LB v/ptcp/adj? 		htm	destroy			
256	hdm	footstool		LB 	The house	htm	throne, stool			Coptic ϩⲁⲧⲙⲉ vessel/measure hapax
257	ḥa/wt	camp, tent village? 		PLACE NAME 	The house					
258	ḥꜣyry	chariot part?		LB	Warfare and hunting					
259	ḥydb 	highlands 		PLACE NAME 	The physical world					
260	ḥbr	uncertain, perhaps 'rope' 		LB	Basic actions and technology					
261	ḥbrḏt	meadow saffron 		LB	Agriculture and vegetation					
262	ḥfḏ	to hurry, rush 		LB v? 						
263	ḥmr 	ass		LB	animals 					
264	ḥmkt	body of water 		LB	The physical world					
265	ḥmkt	disease?		LB	health/ The body? 					debated etymology- no links, but syllabic and appears in  foreigner speech- m ḏd n ḫꜣstyw and later in HPBM 
266	ḥmḏ	vinegar/ type of wine		LB	food and drink 					
267	ḥnyt	spear		LB	Warfare and hunting					
268	ḥnn	to be gracious		v in PN 	emotions 					
269	ḥnr	to squint, long for 		LB v	emotions 					
270	ḥnrg/ ḥlg	to quake, be embarrased 		LB v	emotions 					
271	ḥr	canal 		LB	The physical world					
272	ḥr	dung		LB	body 					
273	ḥrp	dagger, sword type*		LB	Warfare and hunting					
274	ḥḳrꜥ, ḥgry	field, territory 		n in TN 	Agriculture and vegetation/ Social and political relations					Kitchen 1997 supports Hoch's etymology for Hql, previously translated as 'fort' 
275	ḥtl	basketry		LB	Basic actions and technology					
276	ḥṯ	to overlay, to inlay		LB v	actions 					
277	ḥdst, ḥdšt	new 		n/ADJ. in TN	time? 					U33 WITH LINE- TI SIGN TO REPLACE 
278	ḫp	tire		LB	Warfare and hunting					rib classifier 
279	ḫbr	business, colleague		LB	social 	xbr	partner, friend	ϣⲃⲏⲣ	friend 	
280	ḫpw	shore 		LB	The physical world					
281	ḫmṯ	power		LB 						
282	ḫnr	fangs, canines 		LB 		xl/Sl 	canine tooth	ϣⲟⲗ (BS)	tooth 	
283	ḫnr	chisel, pickaxe		LB						
284	ḫnr	to be hoarse 		LB v				S- ϩⲱⲗ, B- ϧⲱⲗ	to be hoarse	xrw xnr m-Dd voice is X from talking 
285	ḫnrꜥ	blustering? 		LB						
286	ḫnrf	reproach 		LB						
287	xnrḏ/xlḏ	fortress		TN						
288	ḫr	street, road 		LB						
289	ḫlꜥ	ailment (of eyes)		LB						
290	ḫrꜥt	ravine, valley, wady		LB		xlt	canal	ϧⲉⲗⲗⲟⲧ	wady, valley	
291	ḫrb	desert		LB						
292	ḫlb	destroyer 		DN 						
293	ḫrpt	perfumed water (with Galbanum*)?		LB						
294	ḫrr	a mineral 		LB						
295	ḫrr	watercourse, canal 		TN						
296	ḫrqt	slippery ground		LB						
297	xrTi	sun		TN						
298	ḫrd	garment/bag? * 		LB						
299	ḫtr-ḫt? 	part of chariot 		LB						
300	ḫTn	vegetable- lettuce? garlic? 		LB	agriculture and vegetation / food and drink 					
301	xḏr	The sow. (pig)		DN- demon 						
302	sꜥr	barley field 		LB	agriculture and vegetation 					
303	sꜥrti	wool		LB						
304	swbb	to draw back		LB v	actions 					
305	swr	chariot part 		LB	warfare 					
306	sb	to return 		v in PN, V in TN, V in DN 	actions 					D55
307	sbr	spikes, shoots? 		LB	agriculture and vegetation 					
308	sbr	certain beer/ its ingridient / Aroma? 		LB	food and drink?					kitchen 1997 notes 'aroma' for the context, but no suggested etymology. 
309	smn	hearing ???		v in PN? PN 						
310	smn 	north, left		n/adj. in TN						
311	smkt	beam, girder		LB						
312	snny	archer, chariot solider 		LB						
313	srn	plain 		TN						
314	srḥt	stalks, bunches 		LB						
315	srx	to strip off 		LB v	actions 					
316	srq	snow		LB						
317	srt	captive		LB						
318	shqq	the growler? 		DN						
319	sxnš	to be stirred up, to be provoked 		LB v						
320	sxra	to scorn, hold in contempt		LB v						
321	sqb	to be exalted 		v in PN, V in TN, 						
322	ski	military officer, guard? 		LB						
323	sg	to open way, break the trail 		LB v						
324	sg	sackcloth*? 		LB						
325	sgbyn	body of water 		LB or TN 						
326	sgr	building type, fort? 		LB						
327	sdbt	hall, court		LB						
328	šꜥr	calculation/scheme		LB						
329	šꜥr	to scheme		LB v						
330	šꜥr	market price		LB						
331	šꜥr	gate 		LB						
332	šAart	the vixen 		DN demon f.						
333	šwbt	a vessel		LB 						
334	šwštı͗/ šꜣwꜣšꜣtı͗	adminstration		LB 						
335	šby	precious stone, agate? 		LB 						
336	šbrt/šblt 	flowing stream, torrent 		n in TN 						
337	šbdt	staff, rod 		LB						
338	špti/šfti/	to judge 		vb/adj. in PN 						Kitchen 1997 doubts that token- ftyS belongs here 
339	šm	name 		N in PN						
340	šmꜥ	to hear		v IN PN						
341	šmry	protection 		v IN PN						
342	šmš	the sun/SamSu 		N in TN 						
343	šnbꜥ	trumpet 		LB						
344	šnrf	to be dishevelled 		LB v						
345	šrm	to greet 		LB v						
346	šrm	to lay down (arms), seek peace, greet, do homage	šrm	LB (Verb)	Warfare and hunting/ social relations					
347	šrm	peace, greetings 		LB						
348	šrmt	provisions, delivery 		LB						
349	šrgḥ	passions, excited feelings 		LB						
350	šḥḳ	dust cloud? type of bread? 		LB						
351	šḳ	? to be impelled		LB v						
352	škb	upper and lower millstones 		LB						
353	škn 	watering place 		LB						
354	šgr	body of water		LB						
355	šd	to assail, assualt, beset		LB v						
356	šdrt	ravine, chasm		LB						
357	ḳbꜥ	hill 		N in TN 						
358	ḳbꜥ	to tease, to mock 		LB v						
359	ḳnt/knt	wine press		N in TN 						
360	ḳr	roaster		LB						
361	ḳr	end of papyrus, margin 		LB						
362	ḳry	to dwell 		LB v						
363	ḳry	visitor, vagabond, alien 		LB 						
364	ḳry	to approach?		LB v						
365	ḳrꜥ	toward, opposite 		LB N/inf. in compound preposition 						
366	ḳrꜥ	shield		LB		gla	shield 			
367	ḳrꜥ	shield bearer		LB						
368	ḳrꜥ	to serve as shield bearer		LB v						
369	ḳrmt	ashes 		LB		krb, krm	ashes	ⲕⲣⲙⲧⲥ(AS) ⲕⲣⲙⲉⲥ (S)	smoke, fire / ashes 	
370	ḳrnt	(uncircumsized?) phallus, foreskin 		LB 						
371	ḳrt	town 		N in TN 						
372	ḳrḏn	axe		LB 						
373	ḳtt	spear 		LB 						
374	ḳdrt	incense		LB 						
375	ḳdš	sanctuary 		N in TN 						
376	ḳḏ	gypsum, plaster 		LB						
377	ḳḏy, ḳḏ?	plasterer		LB						Hoch includes example with 'n', suggested by Kitchen to be of another lemma qDn connected to ugaritic and HB qsn קצין, 'boss' (Kitchen 1997, 1987)
378	ḳḏ	to go around, run		LB v hapax	motion	qD	run	Ϭⲟϫⲓ	run	
379	ḳḏ	thornbush 		LB 						
380	ḳḏm	handful (measure)		LB						
381	ḳḏr	fledgling, young bird 		LB and PN 						
382	ḳḏḥ	cut off, break/ to grind 		LB v						
383	ḳḏmḏm	to gash 		LB v						
384	ḳwšn	chariot part 		LB						
385	kbrt	sulphur, brimstone (as ailment)		LB						
386	kbs	basket		LB						
387	kp	palm, sole		LB		kp	hand	(S, B) ϭⲟⲡ (S) ⲕⲁⲡ (Sf, A, sA) ϭⲁⲡ (B) ϣⲟⲡ.	‘sole of foot’ and later ‘sole of shoe.’	
388	km	like 		LB prep.						
389	kmn	to be blind, to be dark 		LB v		gnm	to be blind	ϭⲱⲛⲙ (O) 	to be blind	
390	kmn	a blind person		LB						
391	kmn	blindness		LB						
392	kmr	dancer		LB						
393	kmr	tusks, ivory		LB						
394	kmḥ	type of bread		LB						
395	kms	cowardice? 		LB						
396	knꜥ	to protect, guard 		LB						
397	knnr	lyre 		LB						
398	kḥn	darkness, gloom of night 		LB						
399	knt	garment, cloak? 		LB						
400	kr	saddle		LB						
401	kr	dwelling ?? 		v/n in PN						
402	krꜥt	prison 		LB						
403	kriti	to be caged 		v in TN 						
404	krb	dog		N in PN 				ⲕⲁⲗⲱⲡⲟⲩ, ϭⲁⲗⲁⲡ 	puppy	
405	krp	to efface, remove 		LB v						
406	krp	undercut bank 		TN 						
407	krmym	vineyard, orchard 		TN 						
408	krḥt	basket type 		LB 				ϭⲁⲗⲁϩⲧ	pot 	
409	krs	to frisk, leap		 LB  vb/adj ?						
410	krs	sack 		LB 						
411	krkr	stone heap 		LB 						
412	krkr 	couch, divan 		LB 						
413	krt	sword, slaughter 		LB- v? 						
414	krT	whip chords, cloth straps 		LB 						
415	kHs	chair 		LB 						
416	ktp	sword		LB 						
417	ktm	gold		LB 						
418	kT	cup, goblet		LB 						
419	kTm	divination, omen, decision 		LB 						
420	kTt	garment, covering 		LB 						
421	kḏn	charioteer 		LB 	a designation for horses - boss/military leader					not in hoch, kitchen JEA 71 (1985): 218-220 qḏn connected to ugaritic and HB qsn קצין, 'boss' (Kitchen 1997, 1987)
422	gw	a designation for horses 		LB 						
423	gwn	haversack*? 		LB - perhaps Libyan (Kitchen 1997)						
424	gwš	to be crooked, to turn away 		LB  v						
425	gwš	crookedness 		LB 						look up in KRI V 350-360 
426	gp	to cut off?? to strip off? to pluck birds? 		LB 						
427	gns	violence, injustice		LB 						
428	gry	stream 		N in TN 						
429	grb/ grp 	to shave, plane (wood) 		LB v						
430	grb	a garment 		N in TN, TN 				ϭⲟⲗⲃⲉ (S) ϫⲟⲗⲃⲓ (B)	garment of wool 	
431	grna	threshing floor 		LB 						
432	grt	kidneys 		LB 				ϭⲗⲱⲧ (SB), dual ϭⲗⲟⲟϭⲉ		
433	grḏ	morsels (of meat) 		LB 						
434	gsm.w	rainstorm		LB 						
435	gsr	finger ring 		LB 		kswr	finger ring 	ⲝⲟⲩⲣ (S) ϭⲥⲟⲩⲣ	finger ring 	
436	tḥms	type of bread 		PN f. 						
437	tby	good 		TN adj? 						
438	tnr-- tl	mounds, heaps 		LB 						
439	tra 	door, gate 		LB 						
440	tra 	the worm, dressed in crimson 		PN m. 						
441	trmg	to roar, thunder 		V in PN, only compund bar-trmg						
442	trr	oven		LB v		trry	oven 	ⲧⲣⲓⲣ	oven	
443	trr	to race, go for X		LB v						
444	trt	door leaves? 		Lb and N in tN 						
445	tḥs	to crush 		LB v						
446	txbt	basket type 		LB						
447	txr	chariot part 		LB						
448	Tpr 	scribe		LB and N in TN- FOREIGN SPEECH? 						
449	Tpr 	large drinking bowl, crater		LB						
450	Tpr	bronze covered chariot 		LB						
451	Tpg	barracks 		LB						
452	Tryn	body armour 		LB						
453	XYZ4	hh checkup to keep numbers same 								
454	Trb	vessel type , large drinking bowl? 		LB						
455	Trry	siege-mound 		LB						
456	Trt	wheat flour (finely ground) 		LB						
457	Tḥb	? stall? stable? 		LB ? 						
458	THr	to mock, deride, be rude, offensive 		LB v						
459	Tkr	tower gate		LB	architecture 					
460	Tkr	to remember		v in PN						
461	Tg	tree type/wood type		LB						
462	Tda	?		LB						
463	dbr	naos, inner sanctury 		LB 				ⲧⲁⲃⲓⲣ 	sanctury 	
464	dbx	slauthering 		vb/n in TN 	actions 					
465	Dpḥ	apple 	Dpḥ	LB and N in PN	food and drink 			ϫⲉⲙⲫⲉϩ	apple 	"DpH	pomme	https://ramses.ulg.ac.be/text/legacy/2750/quote/176/176
87567"
466	dnm	furrow 		LB 				ⲧⲗⲟⲙ, ⲧⲛⲟⲙ  (S) ⲑⲗⲟⲙ (B)	furrow 	
467	dd	lustful, bawdy? 		LB						
468	dd	to make love, to have sex 		LB v						
469	ḏaq	to cry out (for help)		LB						
470	ḏaqt	cries, calls 		LB v						
471	ḏwt	insect type 		LB	animals 					
472	ḏba	troops, army 		LB						
473	ḏbb	body of water		LB						
474	ḏbqbq	dunking, soaking		LB						
475	ḏpn	north		N in DN 						
476	ḏpr	bird?		PN	animals 					
477	ḏpḥ	lumber/ plank/ panel 		LB						
478	ḏpq	dancer, acrobat 		LB	professions, social 					
479	ḏmt	thirsty/parched 		LB v/adj?						
480	ḏmr	protection 		PN						
481	ḏmq	raisins? valley? 		N in TN 						
482	ḏnn	X of hair 		LB	body 					
483	ḏnn	torments, pains 		LB/ LB v	emotions 					
484	ḏnḏr/ ḏnḏn	stick, branch 		LB 				ϫⲁⲗ	branch	
485	ḏnr	cricket? 		N in TN 	animals 					
486	ḏnrgt	?		PN 						
487	ḏr	helper		LB 	social relations 					
488	ḏra	lay down, overthrow		LB v						
489	ḏra	hornets 		N in TN 	?					
490	ḏrat	plank		LB 						
491	ḏhrt	jar/bowl 		LB 	manmade objects 			ϫⲗⲁϩⲧⲥ (F)*? 	large vessel	
492	ḏdt	olives/olive oil/ olive trees 		LB 	agriculture and vegetation			ϫⲟⲉⲓⲧ (S) ϫⲁⲉⲓⲧ (S,Sa,A) ϫⲱⲓⲧ (B) ϫⲁⲓⲧ (A2, F), ϫⲓⲧ- (A, S, F)	olive tree, olive 	
493	ḏḏ	flower/ rosette 		LB 	agriculture and vegetation					
494	ptr	mule 		LB 	animal					kitchen 1974: 17-20 
495	tr	dew (drop)		PN 						kitchen hoch review 89 
496	pt	save/redeem 		PN 						kitchen hoch review 89 
497	Kfni	?		PN 						kitchen hoch review 89 
498	qbḥ	small pot			man made objects					
499	iSr	ISr 		PN						
500	ski									
501	nxt	victory 								
502	swtx				religion					
503	aḏꜣ									
504	wxꜣ									
505	Hr-n-Hr	panic; misfortune								
506	xꜣq.w-ib	disaffected persons			ref. Van der Molen 418 					
507	Dam	offspring; youths; generation								
508	siA	cognition			mind					
509	Hms	to sit 								
510	br			LB and N in TN 						
511	bʿrt	lady		DN in LB, and in PN 	divine 					is it Ba'alat? 
512	ḥmr 									false- Hnr and not Hml 
